Analysis of University Health Center Patients
…
bt_workflow <- 
  workflow() %>%
  add_model(lm_mod) %>%
  add_recipe(bt_train_rec)

bt_fit <- bt_workflow %>%
  fit(training_df)

bt_fit %>%
  extract_fit_parsnip() %>%
  tidy()

## # A tibble: 32 x 5
##    term                  estimate std.error statistic   p.value
##    <chr>                    <dbl>     <dbl>     <dbl>     <dbl>
##  1 (Intercept)            98.0        0.387   253.    0        
##  2 SwollenLymphNodes_Yes  -0.140      0.112    -1.25  0.211    
##  3 ChestCongestion_Yes     0.193      0.116     1.66  0.0972   
##  4 ChillsSweats_Yes        0.185      0.155     1.19  0.234    
##  5 NasalCongestion_Yes    -0.275      0.137    -2.00  0.0456   
##  6 Sneeze_Yes             -0.469      0.118    -3.96  0.0000855
##  7 Fatigue_Yes             0.278      0.204     1.37  0.173    
##  8 SubjectiveFever_Yes     0.483      0.123     3.92  0.000103 
##  9 Headache_Yes           -0.0169     0.150    -0.112 0.911    
## 10 Weakness_Mild           0.0697     0.234     0.298 0.766    
## # ... with 22 more rows

Evaluate model performance

# Check the model performance

predict(bt_fit, testing_df)

## # A tibble: 222 x 1
##    .pred
##    <dbl>
##  1  99.3
##  2  99.0
##  3  99.8
##  4  99.8
##  5  98.8
##  6  99.2
##  7  99.7
##  8  99.6
##  9  99.5
## 10  99.4
## # ... with 212 more rows

bt_aug_train <- augment(bt_fit, training_df)
bt_aug_train %>% select(BodyTemp, .pred)

## # A tibble: 508 x 2
##    BodyTemp .pred
##       <dbl> <dbl>
##  1     97.8  98.8
##  2     98.1  98.5
##  3     98.1  98.6
##  4     98.2  98.6
##  5     97.8  99.0
##  6     98.2  98.4
##  7     98.1  98.1
##  8     98    99.5
##  9     97.7  98.8
## 10     98.2  99.1
## # ... with 498 more rows

bt_aug_test <- augment(bt_fit,testing_df)
bt_aug_test %>% select(BodyTemp, .pred)

## # A tibble: 222 x 2
##    BodyTemp .pred
##       <dbl> <dbl>
##  1    100.   99.3
##  2     98.8  99.0
##  3     98.2  99.8
##  4     97.9  99.8
##  5    102.   98.8
##  6     99.3  99.2
##  7     97.8  99.7
##  8     99.5  99.6
##  9     99.7  99.5
## 10     98.8  99.4
## # ... with 212 more rows
…
null_fit %>%
  extract_fit_parsnip() %>%
  tidy()

## # A tibble: 1 x 5
##   term        estimate std.error statistic p.value
##   <chr>          <dbl>     <dbl>     <dbl>   <dbl>
## 1 (Intercept)     98.9    0.0537     1842.       0

Evaluate model performance.

# Check Null Model performance
predict(null_fit, testing_df)

## # A tibble: 222 x 1
##    .pred
##    <dbl>
##  1  98.9
##  2  98.9
##  3  98.9
##  4  98.9
##  5  98.9
##  6  98.9
##  7  98.9
##  8  98.9
##  9  98.9
## 10  98.9
## # ... with 212 more rows

null_aug_train <- augment(null_fit, training_df)
null_aug_train %>% select(BodyTemp, .pred)

## # A tibble: 508 x 2
##    BodyTemp .pred
##       <dbl> <dbl>
##  1     97.8  98.9
##  2     98.1  98.9
##  3     98.1  98.9
##  4     98.2  98.9
##  5     97.8  98.9
##  6     98.2  98.9
##  7     98.1  98.9
##  8     98    98.9
##  9     97.7  98.9
## 10     98.2  98.9
## # ... with 498 more rows

null_aug_test <- augment(null_fit,testing_df)
null_aug_test %>% select(BodyTemp, .pred)

## # A tibble: 222 x 2
##    BodyTemp .pred
##       <dbl> <dbl>
##  1    100.   98.9
##  2     98.8  98.9
##  3     98.2  98.9
##  4     97.9  98.9
##  5    102.   98.9
##  6     99.3  98.9
##  7     97.8  98.9
##  8     99.5  98.9
##  9     99.7  98.9
## 10     98.8  98.9
## # ... with 212 more rows
…
# create tree with new workflow
tree_res <- tree_wf %>%
  tune_grid(
    resamples = folds,
    grid = tree_grid
  )

tree_res %>%
  collect_metrics()

## # A tibble: 50 x 8
##    cost_complexity tree_depth .metric .estimator     mean     n  std_err .config
##              <dbl>      <int> <chr>   <chr>         <dbl> <int>    <dbl> <chr>  
##  1    0.0000000001          1 rmse    standard     1.19      25  0.0181  Prepro~
##  2    0.0000000001          1 rsq     standard     0.0361    25  0.00422 Prepro~
##  3    0.0000000178          1 rmse    standard     1.19      25  0.0181  Prepro~
##  4    0.0000000178          1 rsq     standard     0.0361    25  0.00422 Prepro~
##  5    0.00000316            1 rmse    standard     1.19      25  0.0181  Prepro~
##  6    0.00000316            1 rsq     standard     0.0361    25  0.00422 Prepro~
##  7    0.000562              1 rmse    standard     1.19      25  0.0181  Prepro~
##  8    0.000562              1 rsq     standard     0.0361    25  0.00422 Prepro~
##  9    0.1                   1 rmse    standard     1.21      25  0.0177  Prepro~
## 10    0.1                   1 rsq     standard   NaN          0 NA       Prepro~
## # ... with 40 more rows
…
## # A tibble: 5 x 8
##    mtry min_n .metric .estimator  mean     n std_err .config              
##   <int> <int> <chr>   <chr>      <dbl> <int>   <dbl> <chr>                
## 1     4    32 rmse    standard    1.16    25  0.0168 Preprocessor1_Model07
## 2     6    26 rmse    standard    1.16    25  0.0167 Preprocessor1_Model24
## 3     3    22 rmse    standard    1.16    25  0.0168 Preprocessor1_Model25
## 4     6    17 rmse    standard    1.17    25  0.0167 Preprocessor1_Model06
## 5    12    37 rmse    standard    1.17    25  0.0168 Preprocessor1_Model23

rf_res %>% 
  collect_predictions()

## # A tibble: 63,500 x 8
##    id      id2   .pred  .row  mtry min_n BodyTemp .config              
##    <chr>   <chr> <dbl> <int> <int> <int>    <dbl> <chr>                
##  1 Repeat1 Fold1  98.9     9    10    24     97.7 Preprocessor1_Model01
##  2 Repeat1 Fold1  99.1    10    10    24     98.2 Preprocessor1_Model01
##  3 Repeat1 Fold1  98.6    27    10    24     97.4 Preprocessor1_Model01
##  4 Repeat1 Fold1  98.9    31    10    24     97.7 Preprocessor1_Model01
##  5 Repeat1 Fold1  98.9    33    10    24     97.9 Preprocessor1_Model01
##  6 Repeat1 Fold1  98.7    41    10    24     98.2 Preprocessor1_Model01
##  7 Repeat1 Fold1  98.8    46    10    24     98.2 Preprocessor1_Model01
##  8 Repeat1 Fold1  98.9    49    10    24     98.1 Preprocessor1_Model01
##  9 Repeat1 Fold1  99.0    53    10    24     98.1 Preprocessor1_Model01
## 10 Repeat1 Fold1  99.1    64    10    24     98   Preprocessor1_Model01
## # ... with 63,490 more rows
…
