Tidy Tuesday 2
…
m_wf <- workflow() %>%
  add_model(lr_mod) %>%
  add_recipe(m_rec)

m_fit <- 
  m_wf %>%
  fit(data = train_data)

## Warning: There are new levels in a factor: NA

tidy(m_fit) #will throw a warning

## # A tibble: 68 x 5
##    term              estimate std.error statistic p.value
##    <chr>                <dbl>     <dbl>     <dbl>   <dbl>
##  1 (Intercept)         -895.   1885598. -0.000475    1.00
##  2 track_length_m       112.    247522.  0.000452    1.00
##  3 race_laps             NA         NA  NA          NA   
##  4 qual_time            -23.9    57044. -0.000419    1.00
##  5 qual_place            NA         NA  NA          NA   
##  6 site_Hivedrive        NA         NA  NA          NA   
##  7 site_Midnight.Bay     NA         NA  NA          NA   
##  8 site_Momotorway       NA         NA  NA          NA   
##  9 site_O.raceway        NA         NA  NA          NA   
## 10 site_Razzway          NA         NA  NA          NA   
## # ... with 58 more rows

predict(m_fit,test_data) #will throw a warning

## # A tibble: 32 x 1
##    .pred_class
##    <fct>      
##  1 0          
##  2 0          
##  3 0          
##  4 0          
##  5 0          
##  6 0          
##  7 0          
##  8 0          
##  9 0          
## 10 0          
## # ... with 22 more rows

m_aug <- augment(m_fit,test_data)

m_aug %>%
  select(qual_place,top_3,.pred_class)

## # A tibble: 32 x 3
##    qual_place top_3 .pred_class
##         <dbl> <fct> <fct>      
##  1          2 1     0          
##  2          9 1     0          
##  3         15 0     0          
##  4          5 1     0          
##  5          6 1     0          
##  6          2 1     0          
##  7          4 0     0          
##  8          3 0     0          
##  9         12 0     0          
## 10          2 1     0          
## # ... with 22 more rows
…
